{
  "format" : "10.0.0",
  "id" : "18CE928ED463CF25",
  "kind" : "HTML_DIALOG",
  "config" : {
    "data" : "ch.xpertline.xtrans.cmsTool.cmsToolData"
  },
  "elements" : [ {
      "id" : "f0",
      "type" : "HtmlDialogStart",
      "name" : "start()",
      "config" : {
        "callSignature" : "start",
        "guid" : "18CE928ED4994EAC"
      },
      "visual" : {
        "at" : { "x" : 96, "y" : 64 }
      },
      "connect" : { "id" : "f2", "to" : "f1" }
    }, {
      "id" : "f1",
      "type" : "HtmlDialogEnd",
      "visual" : {
        "at" : { "x" : 224, "y" : 64 }
      }
    }, {
      "id" : "f3",
      "type" : "HtmlDialogEventStart",
      "name" : "close",
      "config" : {
        "guid" : "18CE928ED5799E92"
      },
      "visual" : {
        "at" : { "x" : 96, "y" : 160 }
      },
      "connect" : { "id" : "f5", "to" : "f4" }
    }, {
      "id" : "f4",
      "type" : "HtmlDialogExit",
      "visual" : {
        "at" : { "x" : 224, "y" : 160 }
      }
    } ]
}